%gs -dDEVICEWIDTHPOINTS=252 -dDEVICEHEIGHTPOINTS=396  -dSAFER  -dNOPAUSE -dBATCH -sDEVICE=pdfwrite  -sOutputFile=page.pdf    page.ps

%!PS-Adobe-2.0
%%Title: page.dvi
%%Pages: 2
%%PageOrder: Ascend
%%BoundingBox: 0 0 252 396
%%DocumentFonts: CMR10
%%EndComments

/year 2021 def
/MONTH 02 def
/DAY 22 def
/WDAY 0 def




/dayspermonth [
  31 28 31 % J F M
  30 31 30 % A M J
  31 31 30 % J A S
  31 30 31
] def


/calcLeapYear {
  year 4 mod 0 eq  /LEAPYEAR exch def
  LEAPYEAR {
    dayspermonth 1 29 put
  } {
    dayspermonth 1 28 put
  }ifelse
} def

calcLeapYear

/adddays {
  dup
  DAY add /DAY exch def
  WDAY add /WDAY exch def

  WDAY 6 gt {
    /WDAY 0 def
  } if

  DAY dayspermonth MONTH get gt
  % Check whether more days in month than allows
  {
    DAY dayspermonth MONTH get mod /DAY exch def
    MONTH 1 add /MONTH exch def
    MONTH 11 gt {
      /MONTH 0 def
      year 1 add /year exch def
      calcLeapYear
    } if
  } if

} def


/calcStartDate {
  %TODO Check whether WDAY works
  6  DAY WDAY sub 5 add 7 mod sub
} def

/calcEndDate {
    dayspermonth MONTH get
    DAY WDAY sub
  sub /RDAYS exch def
  2 RDAYS 1 sub 7 mod add
} def


/monthnames [
(January) (February) (March)
(April) (May) (June)
(July) (August) (September)
(October) (November) (December)
] def


/l { newpath moveto lineto 0.1 setlinewidth stroke } def

/lhole {
  newpath
  0 0 moveto
  8 0 lineto
  16 0 8 180 270 arc
  16 8 lineto
  16 0 8 90 180 arc
  closepath
  stroke
} def

/rhole {
  newpath
  252 0 moveto
  244 0 lineto
  236 0 8 0 90 arc
  236 -8 lineto
  236 0 8 270 0 arc
  stroke
} def

/cbox {

  calcStartDate /sd exch def
  calcEndDate /ed exch def
  sd dayspermonth MONTH get add 6 add 7 idiv
    /nw exch def

  ed 7 eq {
    nw 1 add /nw exch def
  } if
  ed 7 mod /ed exch def


  1 DAY 7 idiv add /cw exch def
  0 DAY 7 mod eq {
    cw 1 sub /cw exch def
  } if
  sd 0 eq {
    cw 1 sub /cw exch def
  } if


  162 -44 translate

  /plw {35 nw 5 mul sub} def
  newpath
  0.5 0.6 1 setrgbcolor
  0.1 setlinewidth
  sd 6 mul 30 moveto
  42 30 lineto
  42 plw lineto
  ed 6 mul plw lineto
  ed 6 mul plw 5 sub lineto
  0 plw 5 sub lineto
  0 25 lineto
  sd 6 mul 25 lineto
  closepath
  fill

  newpath
  1 0 0 setrgbcolor
  1 setlinewidth
   0 30 cw 5 mul sub moveto
  42 30 cw 5 mul sub lineto
  42 25 cw 5 mul sub lineto
   0 25 cw 5 mul sub lineto
  closepath
  stroke


  0 0 0 setrgbcolor

  newpath
  0.1 setlinewidth
   0  0 moveto
   0 39 lineto
  42 39 lineto
  42  0 lineto
  closepath
  stroke

  0 30 42 30 l
  0 25 42 25 l
  0 20 42 20 l
  0 15 42 15 l
  0 10 42 10 l
  0 05 42 05 l

  /Courier findfont
  5 scalefont
  setfont
  newpath
  2 33 moveto
  (M T W T F S S) show

  -162  44 translate
} def

/showday {
  DAY 2 string cvs show
  (.) show
  MONTH 1 add 2 string cvs show
  (.) show
} def


/mheader {
  /Helvetica-Bold findfont
  20 scalefont
  setfont
  newpath
  0 0 moveto
  monthnames MONTH get
  show
  ( ) show
  year 4 string cvs show
} def


/wheader {
  cbox
  newpath
  0 0 moveto
  204 0 lineto
  stroke
  /Helvetica findfont
  12 scalefont
  setfont
  newpath
  0 -18 moveto
  showday
  ( - ) show
  6 adddays
  showday
  1 adddays
} def

/lholes {
  0 54 translate lhole
  0 72 translate lhole
  0 72 translate lhole
  0 72 translate lhole
  0 72 translate lhole
} def
/rholes {
  0 54 translate rhole
  0 72 translate rhole
  0 72 translate rhole
  0 72 translate rhole
  0 72 translate rhole
} def


/PAGENUM 0 def

/makepage {

  1 1 moveto
  251 1 lineto
  251 395 lineto
  1 395 lineto
  1 1 lineto

  0.9 0.9 0.9 setrgbcolor
  0.5 setlinewidth
  stroke
  
  0 0 0 setrgbcolor

  0 342 translate
 %PAGENUM 2 mod 0 eq { lholes } { rholes } ifelse

  24 24 translate
  mheader

  0 -10 translate
  wheader
  0 -180 translate
  wheader

  showpage

  PAGENUM 1 add /PAGENUM exch def
} def

16 {
 makepage
 14 adddays
 PAGENUM 1 add /PAGENUM exch def
}repeat
